{
	"name": "SaV-GM-Screen",
	"title": "Scum and Villainy GM Screen",
	"description": "A community made GM Screen to help run Scum and Villainy games in Foundry VTT.",
	"author": "RegisIan",
	"authors": [],
	"url": "https://gitlab.com/RegisIan/sav-gm-screen",
	"readme": "https://gitlab.com/RegisIan/sav-gm-screen/-/raw/main/README.md",
	"flags": {},
	"version": "1.0.3",
	"minimumCoreVersion": "0.8.6",
	"compatibleCoreVersion": "0.9.0",
	"scripts": [
		"scripts/resize.js"
		],
	"esmodules": [],
	"styles": [],
	"languages": [],
	"packs": [
		{
		  "label": "SaV GM Screen",
		  "entity": "JournalEntry",
		  "name": "sav-gm-screen",
		  "path": "packs/sav-gm-screen.db",
		  "module": "SaV-GM-Screen",
		  "private": false
		},
		{
		  "label": "SaV GM Screen - Rollable Tables",
		  "entity": "RollTable",
		  "name": "sav-gm-screen-rollable-tables",
		  "path": "packs/sav-gm-screen-rollable-tables.db",
		  "module": "SaV-GM-Screen",
		  "private": false
		},
		{
		  "label": "SaV GM Screen - Macro",
		  "entity": "Macro",
		  "name": "sav-gm-screen-macro",
		  "path": "packs/sav-gm-screen-macro.db",
		  "module": "SaV-GM-Screen",
		  "private": false
		}
		],
	"system": [
		"scum-and-villainy"
		],
	"dependencies": [],
	"socket": false,
	"manifest": "https://gitlab.com/RegisIan/sav-gm-screen/-/raw/main/module.json",
	"download": "https://gitlab.com/RegisIan/sav-gm-screen/-/archive/1.0.3/sav-gm-screen-1.0.3.zip",
	"coreTranslation": false
}
